vga_controller/pong_top_st.vcd
$date
  Tue Jun  2 21:31:43 2020
$end
$version
  GHDL v0
$end
$timescale
  1 fs
$end
$scope module standard $end
$upscope $end
$scope module std_logic_1164 $end
$upscope $end
$scope module numeric_std $end
$upscope $end
$scope module tb_pong_top_st $end
$var reg 1 ! clk $end
$var reg 1 " rst $end
$var reg 1 # hsync $end
$var reg 1 $ vsync $end
$var reg 3 % rgb[2:0] $end
$scope module uut $end
$var reg 1 & clk $end
$var reg 1 ' rst $end
$var reg 1 ( hsync $end
$var reg 1 ) vsync $end
$var reg 3 * rgb[2:0] $end
$var reg 10 + pixel_x[9:0] $end
$var reg 10 , pixel_y[9:0] $end
$var reg 1 - video_on $end
$var reg 1 . pixel_tick $end
$var reg 3 / rgb_reg[2:0] $end
$var reg 3 0 rgb_next[2:0] $end
$scope module vga_sync_unit $end
$var reg 1 1 clk $end
$var reg 1 2 rst $end
$var reg 1 3 hsync $end
$var reg 1 4 vsync $end
$var reg 1 5 video_on $end
$var reg 1 6 p_tick $end
$var reg 10 7 pixel_x[9:0] $end
$var reg 10 8 pixel_y[9:0] $end
$var reg 10 9 v_count[9:0] $end
$var reg 10 : h_count[9:0] $end
$upscope $end
$scope module pong_grf_st_unit $end
$var reg 1 ; video_on $end
$var reg 10 < pixel_x[9:0] $end
$var reg 10 = pixel_y[9:0] $end
$var reg 3 > graph_rgb[2:0] $end
$var reg 10 ? pix_x[9:0] $end
$var reg 10 @ pix_y[9:0] $end
$var reg 1 A wall_on $end
$var reg 3 B wall_rgb[2:0] $end
$upscope $end
$upscope $end
$upscope $end
$enddefinitions $end
#0
0!
1"
0#
1$
bUUU %
0&
1'
0(
1)
bUUU *
b0000000000 +
b0000000000 ,
0-
0.
bUUU /
b000 0
01
12
03
14
05
06
b0000000000 7
b0000000000 8
b0000000000 9
b0000000000 :
0;
b0000000000 <
b0000000000 =
b000 >
b0000000000 ?
b0000000000 @
0A
b001 B
#20000000
1!
1&
1.
11
16
#40000000
0!
0&
0.
01
06
#60000000
1!
1&
1.
11
16
#80000000
0!
0&
0.
01
06
#100000000
1!
0"
1&
0'
b0000000001 +
1.
11
02
16
b0000000001 7
b0000000001 :
b0000000001 <
b0000000001 ?
#120000000
0!
0&
0.
01
06
#140000000
1!
1&
b0000000010 +
1.
11
16
b0000000010 7
b0000000010 :
b0000000010 <
b0000000010 ?
#160000000
0!
0&
0.
01
06
#180000000
1!
1&
b0000000011 +
1.
11
16
b0000000011 7
b0000000011 :
b0000000011 <
b0000000011 ?
#200000000
0!
0&
0.
01
06
#220000000
1!
1&
b0000000100 +
1.
11
16
b0000000100 7
b0000000100 :
b0000000100 <
b0000000100 ?
#240000000
0!
0&
0.
01
06
#260000000
1!
1&
b0000000101 +
1.
11
16
b0000000101 7
b0000000101 :
b0000000101 <
b0000000101 ?
#280000000
0!
0&
0.
01
06
#300000000
1!
1&
b0000000110 +
1.
11
16
b0000000110 7
b0000000110 :
b0000000110 <
b0000000110 ?
#320000000
0!
0&
0.
01
06
#340000000
1!
1&
b0000000111 +
1.
11
16
b0000000111 7
b0000000111 :
b0000000111 <
b0000000111 ?
#360000000
0!
0&
0.
01
06
#380000000
1!
1&
b0000001000 +
1.
11
16
b0000001000 7
b0000001000 :
b0000001000 <
b0000001000 ?
#400000000
0!
0&
0.
01
06
#420000000
1!
1&
b0000001001 +
1.
11
16
b0000001001 7
b0000001001 :
b0000001001 <
b0000001001 ?
#440000000
0!
0&
0.
01
06
#460000000
1!
1&
b0000001010 +
1.
11
16
b0000001010 7
b0000001010 :
b0000001010 <
b0000001010 ?
#480000000
0!
0&
0.
01
06
#500000000
1!
1&
b0000001011 +
1.
11
16
b0000001011 7
b0000001011 :
b0000001011 <
b0000001011 ?
#520000000
0!
0&
0.
01
06
#540000000
1!
1&
b0000001100 +
1.
11
16
b0000001100 7
b0000001100 :
b0000001100 <
b0000001100 ?
#560000000
0!
0&
0.
01
06
#580000000
1!
1&
b0000001101 +
1.
11
16
b0000001101 7
b0000001101 :
b0000001101 <
b0000001101 ?
#600000000
0!
0&
0.
01
06
#620000000
1!
1&
b0000001110 +
1.
11
16
b0000001110 7
b0000001110 :
b0000001110 <
b0000001110 ?
#640000000
0!
0&
0.
01
06
#660000000
1!
1&
b0000001111 +
1.
11
16
b0000001111 7
b0000001111 :
b0000001111 <
b0000001111 ?
#680000000
0!
0&
0.
01
06
#700000000
1!
1&
b0000010000 +
1.
11
16
b0000010000 7
b0000010000 :
b0000010000 <
b0000010000 ?
#720000000
0!
0&
0.
01
06
#740000000
1!
1&
b0000010001 +
1.
11
16
b0000010001 7
b0000010001 :
b0000010001 <
b0000010001 ?
#760000000
0!
0&
0.
01
06
#780000000
1!
1&
b0000010010 +
1.
11
16
b0000010010 7
b0000010010 :
b0000010010 <
b0000010010 ?
#800000000
0!
0&
0.
01
06
#820000000
1!
1&
b0000010011 +
1.
11
16
b0000010011 7
b0000010011 :
b0000010011 <
b0000010011 ?
#840000000
0!
0&
0.
01
06
#860000000
1!
1&
b0000010100 +
1.
11
16
b0000010100 7
b0000010100 :
b0000010100 <
b0000010100 ?
#880000000
0!
0&
0.
01
06
#900000000
1!
1&
b0000010101 +
1.
11
16
b0000010101 7
b0000010101 :
b0000010101 <
b0000010101 ?
#920000000
0!
0&
0.
01
06
#940000000
1!
1&
b0000010110 +
1.
11
16
b0000010110 7
b0000010110 :
b0000010110 <
b0000010110 ?
#960000000
0!
0&
0.
01
06
#980000000
1!
1&
b0000010111 +
1.
11
16
b0000010111 7
b0000010111 :
b0000010111 <
b0000010111 ?
#1000000000
0!
0&
0.
01
06
#1020000000
1!
1&
b0000011000 +
1.
11
16
b0000011000 7
b0000011000 :
b0000011000 <
b0000011000 ?
#1040000000
0!
0&
0.
01
06
#1060000000
1!
1&
b0000011001 +
1.
11
16
b0000011001 7
b0000011001 :
b0000011001 <
b0000011001 ?
#1080000000
0!
0&
0.
01
06
#1100000000
1!
1&
b0000011010 +
1.
11
16
b0000011010 7
b0000011010 :
b0000011010 <
b0000011010 ?
#1120000000
0!
0&
0.
01
06
#1140000000
1!
1&
b0000011011 +
1.
11
16
b0000011011 7
b0000011011 :
b0000011011 <
b0000011011 ?
#1160000000
0!
0&
0.
01
06
#1180000000
1!
1&
b0000011100 +
1.
11
16
b0000011100 7
b0000011100 :
b0000011100 <
b0000011100 ?
#1200000000
0!
0&
0.
01
06
#1220000000
1!
1&
b0000011101 +
1.
11
16
b0000011101 7
b0000011101 :
b0000011101 <
b0000011101 ?
#1240000000
0!
0&
0.
01
06
#1260000000
1!
1&
b0000011110 +
1.
11
16
b0000011110 7
b0000011110 :
b0000011110 <
b0000011110 ?
#1280000000
0!
0&
0.
01
06
#1300000000
1!
1&
b0000011111 +
1.
11
16
b0000011111 7
b0000011111 :
b0000011111 <
b0000011111 ?
#1320000000
0!
0&
0.
01
06
#1340000000
1!
1&
b0000100000 +
1.
11
16
b0000100000 7
b0000100000 :
b0000100000 <
b0000100000 ?
1A
#1360000000
0!
0&
0.
01
06
#1380000000
1!
1&
b0000100001 +
1.
11
16
b0000100001 7
b0000100001 :
b0000100001 <
b0000100001 ?
#1400000000
0!
0&
0.
01
06
#1420000000
1!
1&
b0000100010 +
1.
11
16
b0000100010 7
b0000100010 :
b0000100010 <
b0000100010 ?
#1440000000
0!
0&
0.
01
06
#1460000000
1!
1&
b0000100011 +
1.
11
16
b0000100011 7
b0000100011 :
b0000100011 <
b0000100011 ?
#1480000000
0!
0&
0.
01
06
#1500000000
1!
1&
b0000100100 +
1.
11
16
b0000100100 7
b0000100100 :
b0000100100 <
b0000100100 ?
0A
#1520000000
0!
0&
0.
01
06
#1540000000
1!
1&
b0000100101 +
1.
11
16
b0000100101 7
b0000100101 :
b0000100101 <
b0000100101 ?
#1560000000
0!
0&
0.
01
06
#1580000000
1!
1&
b0000100110 +
1.
11
16
b0000100110 7
b0000100110 :
b0000100110 <
b0000100110 ?
#1600000000
0!
0&
0.
01
06
#1620000000
1!
1&
b0000100111 +
1.
11
16
b0000100111 7
b0000100111 :
b0000100111 <
b0000100111 ?
#1640000000
0!
0&
0.
01
06
#1660000000
1!
1&
b0000101000 +
1.
11
16
b0000101000 7
b0000101000 :
b0000101000 <
b0000101000 ?
#1680000000
0!
0&
0.
01
06
#1700000000
1!
1&
b0000101001 +
1.
11
16
b0000101001 7
b0000101001 :
b0000101001 <
b0000101001 ?
#1720000000
0!
0&
0.
01
06
#1740000000
1!
1&
b0000101010 +
1.
11
16
b0000101010 7
b0000101010 :
b0000101010 <
b0000101010 ?
#1760000000
0!
0&
0.
01
06
#1780000000
1!
1&
b0000101011 +
1.
11
16
b0000101011 7
b0000101011 :
b0000101011 <
b0000101011 ?
#1800000000
0!
0&
0.
01
06
#1820000000
1!
1&
b0000101100 +
1.
11
16
b0000101100 7
b0000101100 :
b0000101100 <
b0000101100 ?
#1840000000
0!
0&
0.
01
06
#1860000000
1!
1&
b0000101101 +
1.
11
16
b0000101101 7
b0000101101 :
b0000101101 <
b0000101101 ?
#1880000000
0!
0&
0.
01
06
#1900000000
1!
1&
b0000101110 +
1.
11
16
b0000101110 7
b0000101110 :
b0000101110 <
b0000101110 ?
#1920000000
0!
0&
0.
01
06
#1940000000
1!
1&
b0000101111 +
1.
11
16
b0000101111 7
b0000101111 :
b0000101111 <
b0000101111 ?
#1960000000
0!
0&
0.
01
06
#1980000000
1!
1&
b0000110000 +
1.
11
16
b0000110000 7
b0000110000 :
b0000110000 <
b0000110000 ?
#2000000000
0!
0&
0.
01
06
#2020000000
1!
1&
b0000110001 +
1.
11
16
b0000110001 7
b0000110001 :
b0000110001 <
b0000110001 ?
#2040000000
0!
0&
0.
01
06
#2060000000
1!
1&
b0000110010 +
1.
11
16
b0000110010 7
b0000110010 :
b0000110010 <
b0000110010 ?
#2080000000
0!
0&
0.
01
06
#2100000000
1!
1&
b0000110011 +
1.
11
16
b0000110011 7
b0000110011 :
b0000110011 <
b0000110011 ?
#2120000000
0!
0&
0.
01
06
#2140000000
1!
1&
b0000110100 +
1.
11
16
b0000110100 7
b0000110100 :
b0000110100 <
b0000110100 ?
#2160000000
0!
0&
0.
01
06
#2180000000
1!
1&
b0000110101 +
1.
11
16
b0000110101 7
b0000110101 :
b0000110101 <
b0000110101 ?
#2200000000
0!
0&
0.
01
06
#2220000000
1!
1&
b0000110110 +
1.
11
16
b0000110110 7
b0000110110 :
b0000110110 <
b0000110110 ?
#2240000000
0!
0&
0.
01
06
#2260000000
1!
1&
b0000110111 +
1.
11
16
b0000110111 7
b0000110111 :
b0000110111 <
b0000110111 ?
#2280000000
0!
0&
0.
01
06
#2300000000
1!
1&
b0000111000 +
1.
11
16
b0000111000 7
b0000111000 :
b0000111000 <
b0000111000 ?
#2320000000
0!
0&
0.
01
06
#2340000000
1!
1&
b0000111001 +
1.
11
16
b0000111001 7
b0000111001 :
b0000111001 <
b0000111001 ?
#2360000000
0!
0&
0.
01
06
#2380000000
1!
1&
b0000111010 +
1.
11
16
b0000111010 7
b0000111010 :
b0000111010 <
b0000111010 ?
#2400000000
0!
0&
0.
01
06
#2420000000
1!
1&
b0000111011 +
1.
11
16
b0000111011 7
b0000111011 :
b0000111011 <
b0000111011 ?
#2440000000
0!
0&
0.
01
06
#2460000000
1!
1&
b0000111100 +
1.
11
16
b0000111100 7
b0000111100 :
b0000111100 <
b0000111100 ?
#2480000000
0!
0&
0.
01
06
#2500000000
1!
1&
b0000111101 +
1.
11
16
b0000111101 7
b0000111101 :
b0000111101 <
b0000111101 ?
#2520000000
0!
0&
0.
01
06
#2540000000
1!
1&
b0000111110 +
1.
11
16
b0000111110 7
b0000111110 :
b0000111110 <
b0000111110 ?
#2560000000
0!
0&
0.
01
06
#2580000000
1!
1&
b0000111111 +
1.
11
16
b0000111111 7
b0000111111 :
b0000111111 <
b0000111111 ?
#2600000000
0!
0&
0.
01
06
#2620000000
1!
1&
b0001000000 +
1.
11
16
b0001000000 7
b0001000000 :
b0001000000 <
b0001000000 ?
#2640000000
0!
0&
0.
01
06
#2660000000
1!
1&
b0001000001 +
1.
11
16
b0001000001 7
b0001000001 :
b0001000001 <
b0001000001 ?
#2680000000
0!
0&
0.
01
06
#2700000000
1!
1&
b0001000010 +
1.
11
16
b0001000010 7
b0001000010 :
b0001000010 <
b0001000010 ?
#2720000000
0!
0&
0.
01
06
#2740000000
1!
1&
b0001000011 +
1.
11
16
b0001000011 7
b0001000011 :
b0001000011 <
b0001000011 ?
#2760000000
0!
0&
0.
01
06
#2780000000
1!
1&
b0001000100 +
1.
11
16
b0001000100 7
b0001000100 :
b0001000100 <
b0001000100 ?
#2800000000
0!
0&
0.
01
06
#2820000000
1!
1&
b0001000101 +
1.
11
16
b0001000101 7
b0001000101 :
b0001000101 <
b0001000101 ?
#2840000000
0!
0&
0.
01
06
#2860000000
1!
1&
b0001000110 +
1.
11
16
b0001000110 7
b0001000110 :
b0001000110 <
b0001000110 ?
#2880000000
0!
0&
0.
01
06
#2900000000
1!
1&
b0001000111 +
1.
11
16
b0001000111 7
b0001000111 :
b0001000111 <
b0001000111 ?
#2920000000
0!
0&
0.
01
06
#2940000000
1!
1&
b0001001000 +
1.
11
16
b0001001000 7
b0001001000 :
b0001001000 <
b0001001000 ?
#2960000000
0!
0&
0.
01
06
#2980000000
1!
1&
b0001001001 +
1.
11
16
b0001001001 7
b0001001001 :
b0001001001 <
b0001001001 ?
#3000000000
0!
0&
0.
01
06
#3020000000
1!
1&
b0001001010 +
1.
11
16
b0001001010 7
b0001001010 :
b0001001010 <
b0001001010 ?
#3040000000
0!
0&
0.
01
06
#3060000000
1!
1&
b0001001011 +
1.
11
16
b0001001011 7
b0001001011 :
b0001001011 <
b0001001011 ?
#3080000000
0!
0&
0.
01
06
#3100000000
1!
1&
b0001001100 +
1.
11
16
b0001001100 7
b0001001100 :
b0001001100 <
b0001001100 ?
#3120000000
0!
0&
0.
01
06
#3140000000
1!
1&
b0001001101 +
1.
11
16
b0001001101 7
b0001001101 :
b0001001101 <
b0001001101 ?
#3160000000
0!
0&
0.
01
06
#3180000000
1!
1&
b0001001110 +
1.
11
16
b0001001110 7
b0001001110 :
b0001001110 <
b0001001110 ?
#3200000000
0!
0&
0.
01
06
#3220000000
1!
1&
b0001001111 +
1.
11
16
b0001001111 7
b0001001111 :
b0001001111 <
b0001001111 ?
#3240000000
0!
0&
0.
01
06
#3260000000
1!
1&
b0001010000 +
1.
11
16
b0001010000 7
b0001010000 :
b0001010000 <
b0001010000 ?
#3280000000
0!
0&
0.
01
06
#3300000000
1!
1&
b0001010001 +
1.
11
16
b0001010001 7
b0001010001 :
b0001010001 <
b0001010001 ?
#3320000000
0!
0&
0.
01
06
#3340000000
1!
1&
b0001010010 +
1.
11
16
b0001010010 7
b0001010010 :
b0001010010 <
b0001010010 ?
#3360000000
0!
0&
0.
01
06
#3380000000
1!
1&
b0001010011 +
1.
11
16
b0001010011 7
b0001010011 :
b0001010011 <
b0001010011 ?
#3400000000
0!
0&
0.
01
06
#3420000000
1!
1&
b0001010100 +
1.
11
16
b0001010100 7
b0001010100 :
b0001010100 <
b0001010100 ?
#3440000000
0!
0&
0.
01
06
#3460000000
1!
1&
b0001010101 +
1.
11
16
b0001010101 7
b0001010101 :
b0001010101 <
b0001010101 ?
#3480000000
0!
0&
0.
01
06
#3500000000
1!
1&
b0001010110 +
1.
11
16
b0001010110 7
b0001010110 :
b0001010110 <
b0001010110 ?
#3520000000
0!
0&
0.
01
06
#3540000000
1!
1&
b0001010111 +
1.
11
16
b0001010111 7
b0001010111 :
b0001010111 <
b0001010111 ?
#3560000000
0!
0&
0.
01
06
#3580000000
1!
1&
b0001011000 +
1.
11
16
b0001011000 7
b0001011000 :
b0001011000 <
b0001011000 ?
#3600000000
0!
0&
0.
01
06
#3620000000
1!
1&
b0001011001 +
1.
11
16
b0001011001 7
b0001011001 :
b0001011001 <
b0001011001 ?
#3640000000
0!
0&
0.
01
06
#3660000000
1!
1&
b0001011010 +
1.
11
16
b0001011010 7
b0001011010 :
b0001011010 <
b0001011010 ?
#3680000000
0!
0&
0.
01
06
#3700000000
1!
1&
b0001011011 +
1.
11
16
b0001011011 7
b0001011011 :
b0001011011 <
b0001011011 ?
#3720000000
0!
0&
0.
01
06
#3740000000
1!
1&
b0001011100 +
1.
11
16
b0001011100 7
b0001011100 :
b0001011100 <
b0001011100 ?
#3760000000
0!
0&
0.
01
06
#3780000000
1!
1&
b0001011101 +
1.
11
16
b0001011101 7
b0001011101 :
b0001011101 <
b0001011101 ?
#3800000000
0!
0&
0.
01
06
#3820000000
1!
1&
b0001011110 +
1.
11
16
b0001011110 7
b0001011110 :
b0001011110 <
b0001011110 ?
#3840000000
0!
0&
0.
01
06
#3860000000
1!
1&
b0001011111 +
1.
11
16
b0001011111 7
b0001011111 :
b0001011111 <
b0001011111 ?
#3880000000
0!
0&
0.
01
06
#3900000000
1!
1#
1&
1(
b0001100000 +
1.
11
13
16
b0001100000 7
b0001100000 :
b0001100000 <
b0001100000 ?
#3920000000
0!
0&
0.
01
06
#3940000000
1!
1&
b0001100001 +
1.
11
16
b0001100001 7
b0001100001 :
b0001100001 <
b0001100001 ?
#3960000000
0!
0&
0.
01
06
#3980000000
1!
1&
b0001100010 +
1.
11
16
b0001100010 7
b0001100010 :
b0001100010 <
b0001100010 ?
#4000000000
0!
0&
0.
01
06
#4020000000
1!
1&
b0001100011 +
1.
11
16
b0001100011 7
b0001100011 :
b0001100011 <
b0001100011 ?
#4040000000
0!
0&
0.
01
06
#4060000000
1!
1&
b0001100100 +
1.
11
16
b0001100100 7
b0001100100 :
b0001100100 <
b0001100100 ?
#4080000000
0!
0&
0.
01
06
#4100000000
1!
1&
b0001100101 +
1.
11
16
b0001100101 7
b0001100101 :
b0001100101 <
b0001100101 ?
#4120000000
0!
0&
0.
01
06
#4140000000
1!
1&
b0001100110 +
1.
11
16
b0001100110 7
b0001100110 :
b0001100110 <
b0001100110 ?
#4160000000
0!
0&
0.
01
06
#4180000000
1!
1&
b0001100111 +
1.
11
16
b0001100111 7
b0001100111 :
b0001100111 <
b0001100111 ?
#4200000000
0!
0&
0.
01
06
#4220000000
1!
1&
b0001101000 +
1.
11
16
b0001101000 7
b0001101000 :
b0001101000 <
b0001101000 ?
#4240000000
0!
0&
0.
01
06
#4260000000
1!
1&
b0001101001 +
1.
11
16
b0001101001 7
b0001101001 :
b0001101001 <
b0001101001 ?
#4280000000
0!
0&
0.
01
06
#4300000000
1!
1&
b0001101010 +
1.
11
16
b0001101010 7
b0001101010 :
b0001101010 <
b0001101010 ?
#4320000000
0!
0&
0.
01
06
#4340000000
1!
1&
b0001101011 +
1.
11
16
b0001101011 7
b0001101011 :
b0001101011 <
b0001101011 ?
#4360000000
0!
0&
0.
01
06
#4380000000
1!
1&
b0001101100 +
1.
11
16
b0001101100 7
b0001101100 :
b0001101100 <
b0001101100 ?
#4400000000
0!
0&
0.
01
06
#4420000000
1!
1&
b0001101101 +
1.
11
16
b0001101101 7
b0001101101 :
b0001101101 <
b0001101101 ?
#4440000000
0!
0&
0.
01
06
#4460000000
1!
1&
b0001101110 +
1.
11
16
b0001101110 7
b0001101110 :
b0001101110 <
b0001101110 ?
#4480000000
0!
0&
0.
01
06
#4500000000
1!
1&
b0001101111 +
1.
11
16
b0001101111 7
b0001101111 :
b0001101111 <
b0001101111 ?
#4520000000
0!
0&
0.
01
06
#4540000000
1!
1&
b0001110000 +
1.
11
16
b0001110000 7
b0001110000 :
b0001110000 <
b0001110000 ?
#4560000000
0!
0&
0.
01
06
#4580000000
1!
1&
b0001110001 +
1.
11
16
b0001110001 7
b0001110001 :
b0001110001 <
b0001110001 ?
#4600000000
0!
0&
0.
01
06
#4620000000
1!
1&
b0001110010 +
1.
11
16
b0001110010 7
b0001110010 :
b0001110010 <
b0001110010 ?
#4640000000
0!
0&
0.
01
06
#4660000000
1!
1&
b0001110011 +
1.
11
16
b0001110011 7
b0001110011 :
b0001110011 <
b0001110011 ?
#4680000000
0!
0&
0.
01
06
#4700000000
1!
1&
b0001110100 +
1.
11
16
b0001110100 7
b0001110100 :
b0001110100 <
b0001110100 ?
#4720000000
0!
0&
0.
01
06
#4740000000
1!
1&
b0001110101 +
1.
11
16
b0001110101 7
b0001110101 :
b0001110101 <
b0001110101 ?
#4760000000
0!
0&
0.
01
06
#4780000000
1!
1&
b0001110110 +
1.
11
16
b0001110110 7
b0001110110 :
b0001110110 <
b0001110110 ?
#4800000000
0!
0&
0.
01
06
#4820000000
1!
1&
b0001110111 +
1.
11
16
b0001110111 7
b0001110111 :
b0001110111 <
b0001110111 ?
#4840000000
0!
0&
0.
01
06
#4860000000
1!
1&
b0001111000 +
1.
11
16
b0001111000 7
b0001111000 :
b0001111000 <
b0001111000 ?
#4880000000
0!
0&
0.
01
06
#4900000000
1!
1&
b0001111001 +
1.
11
16
b0001111001 7
b0001111001 :
b0001111001 <
b0001111001 ?
#4920000000
0!
0&
0.
01
06
#4940000000
1!
1&
b0001111010 +
1.
11
16
b0001111010 7
b0001111010 :
b0001111010 <
b0001111010 ?
#4960000000
0!
0&
0.
01
06
#4980000000
1!
1&
b0001111011 +
1.
11
16
b0001111011 7
b0001111011 :
b0001111011 <
b0001111011 ?
#5000000000
0!
0&
0.
01
06
#5020000000
1!
1&
b0001111100 +
1.
11
16
b0001111100 7
b0001111100 :
b0001111100 <
b0001111100 ?
#5040000000
0!
0&
0.
01
06
#5060000000
1!
1&
b0001111101 +
1.
11
16
b0001111101 7
b0001111101 :
b0001111101 <
b0001111101 ?
#5080000000
0!
0&
0.
01
06
#5100000000
1!
1&
b0001111110 +
1.
11
16
b0001111110 7
b0001111110 :
b0001111110 <
b0001111110 ?
#5120000000
0!
0&
0.
01
06
#5140000000
1!
1&
b0001111111 +
1.
11
16
b0001111111 7
b0001111111 :
b0001111111 <
b0001111111 ?
#5160000000
0!
0&
0.
01
06
#5180000000
1!
1&
b0010000000 +
1.
11
16
b0010000000 7
b0010000000 :
b0010000000 <
b0010000000 ?
#5200000000
0!
0&
0.
01
06
#5220000000
1!
1&
b0010000001 +
1.
11
16
b0010000001 7
b0010000001 :
b0010000001 <
b0010000001 ?
#5240000000
0!
0&
0.
01
06
#5260000000
1!
1&
b0010000010 +
1.
11
16
b0010000010 7
b0010000010 :
b0010000010 <
b0010000010 ?
#5280000000
0!
0&
0.
01
06
#5300000000
1!
1&
b0010000011 +
1.
11
16
b0010000011 7
b0010000011 :
b0010000011 <
b0010000011 ?
#5320000000
0!
0&
0.
01
06
#5340000000
1!
1&
b0010000100 +
1.
11
16
b0010000100 7
b0010000100 :
b0010000100 <
b0010000100 ?
#5360000000
0!
0&
0.
01
06
#5380000000
1!
1&
b0010000101 +
1.
11
16
b0010000101 7
b0010000101 :
b0010000101 <
b0010000101 ?
#5400000000
0!
0&
0.
01
06
#5420000000
1!
1&
b0010000110 +
1.
11
16
b0010000110 7
b0010000110 :
b0010000110 <
b0010000110 ?
#5440000000
0!
0&
0.
01
06
#5460000000
1!
1&
b0010000111 +
1.
11
16
b0010000111 7
b0010000111 :
b0010000111 <
b0010000111 ?
#5480000000
0!
0&
0.
01
06
#5500000000
1!
1&
b0010001000 +
1.
11
16
b0010001000 7
b0010001000 :
b0010001000 <
b0010001000 ?
#5520000000
0!
0&
0.
01
06
#5540000000
1!
1&
b0010001001 +
1.
11
16
b0010001001 7
b0010001001 :
b0010001001 <
b0010001001 ?
#5560000000
0!
0&
0.
01
06
#5580000000
1!
1&
b0010001010 +
1.
11
16
b0010001010 7
b0010001010 :
b0010001010 <
b0010001010 ?
#5600000000
0!
0&
0.
01
06
#5620000000
1!
1&
b0010001011 +
1.
11
16
b0010001011 7
b0010001011 :
b0010001011 <
b0010001011 ?
#5640000000
0!
0&
0.
01
06
#5660000000
1!
1&
b0010001100 +
1.
11
16
b0010001100 7
b0010001100 :
b0010001100 <
b0010001100 ?
#5680000000
0!
0&
0.
01
06
#5700000000
1!
1&
b0010001101 +
1.
11
16
b0010001101 7
b0010001101 :
b0010001101 <
b0010001101 ?
#5720000000
0!
0&
0.
01
06
#5740000000
1!
1&
b0010001110 +
1.
11
16
b0010001110 7
b0010001110 :
b0010001110 <
b0010001110 ?
#5760000000
0!
0&
0.
01
06
#5780000000
1!
1&
b0010001111 +
1.
11
16
b0010001111 7
b0010001111 :
b0010001111 <
b0010001111 ?
#5800000000
0!
0&
0.
01
06
#5820000000
1!
1&
b0010010000 +
1.
11
16
b0010010000 7
b0010010000 :
b0010010000 <
b0010010000 ?
#5840000000
0!
0&
0.
01
06
#5860000000
1!
1&
b0010010001 +
1.
11
16
b0010010001 7
b0010010001 :
b0010010001 <
b0010010001 ?
#5880000000
0!
0&
0.
01
06
#5900000000
1!
1&
b0010010010 +
1.
11
16
b0010010010 7
b0010010010 :
b0010010010 <
b0010010010 ?
#5920000000
0!
0&
0.
01
06
#5940000000
1!
1&
b0010010011 +
1.
11
16
b0010010011 7
b0010010011 :
b0010010011 <
b0010010011 ?
#5960000000
0!
0&
0.
01
06
#5980000000
1!
1&
b0010010100 +
1.
11
16
b0010010100 7
b0010010100 :
b0010010100 <
b0010010100 ?
#6000000000
0!
0&
0.
01
06
#6020000000
1!
1&
b0010010101 +
1.
11
16
b0010010101 7
b0010010101 :
b0010010101 <
b0010010101 ?
#6040000000
0!
0&
0.
01
06
#6060000000
1!
1&
b0010010110 +
1.
11
16
b0010010110 7
b0010010110 :
b0010010110 <
b0010010110 ?
#6080000000
0!
0&
0.
01
06
#6100000000
1!
1&
b0010010111 +
1.
11
16
b0010010111 7
b0010010111 :
b0010010111 <
b0010010111 ?
#6120000000
0!
0&
0.
01
06
#6140000000
1!
1&
b0010011000 +
1.
11
16
b0010011000 7
b0010011000 :
b0010011000 <
b0010011000 ?
#6160000000
0!
0&
0.
01
06
#6180000000
1!
1&
b0010011001 +
1.
11
16
b0010011001 7
b0010011001 :
b0010011001 <
b0010011001 ?
#6200000000
0!
0&
0.
01
06
#6220000000
1!
1&
b0010011010 +
1.
11
16
b0010011010 7
b0010011010 :
b0010011010 <
b0010011010 ?
#6240000000
0!
0&
0.
01
06
#6260000000
1!
1&
b0010011011 +
1.
11
16
b0010011011 7
b0010011011 :
b0010011011 <
b0010011011 ?
#6280000000
0!
0&
0.
01
06
#6300000000
1!
1&
b0010011100 +
1.
11
16
b0010011100 7
b0010011100 :
b0010011100 <
b0010011100 ?
#6320000000
0!
0&
0.
01
06
#6340000000
1!
1&
b0010011101 +
1.
11
16
b0010011101 7
b0010011101 :
b0010011101 <
b0010011101 ?
#6360000000
0!
0&
0.
01
06
#6380000000
1!
1&
b0010011110 +
1.
11
16
b0010011110 7
b0010011110 :
b0010011110 <
b0010011110 ?
#6400000000
0!
0&
0.
01
06
#6420000000
1!
1&
b0010011111 +
1.
11
16
b0010011111 7
b0010011111 :
b0010011111 <
b0010011111 ?
#6440000000
0!
0&
0.
01
06
#6460000000
1!
1&
b0010100000 +
1.
11
16
b0010100000 7
b0010100000 :
b0010100000 <
b0010100000 ?
#6480000000
0!
0&
0.
01
06
#6500000000
1!
1&
b0010100001 +
1.
11
16
b0010100001 7
b0010100001 :
b0010100001 <
b0010100001 ?
#6520000000
0!
0&
0.
01
06
#6540000000
1!
1&
b0010100010 +
1.
11
16
b0010100010 7
b0010100010 :
b0010100010 <
b0010100010 ?
#6560000000
0!
0&
0.
01
06
#6580000000
1!
1&
b0010100011 +
1.
11
16
b0010100011 7
b0010100011 :
b0010100011 <
b0010100011 ?
#6600000000
0!
0&
0.
01
06
#6620000000
1!
1&
b0010100100 +
1.
11
16
b0010100100 7
b0010100100 :
b0010100100 <
b0010100100 ?
#6640000000
0!
0&
0.
01
06
#6660000000
1!
1&
b0010100101 +
1.
11
16
b0010100101 7
b0010100101 :
b0010100101 <
b0010100101 ?
#6680000000
0!
0&
0.
01
06
#6700000000
1!
1&
b0010100110 +
1.
11
16
b0010100110 7
b0010100110 :
b0010100110 <
b0010100110 ?
#6720000000
0!
0&
0.
01
06
#6740000000
1!
1&
b0010100111 +
1.
11
16
b0010100111 7
b0010100111 :
b0010100111 <
b0010100111 ?
#6760000000
0!
0&
0.
01
06
#6780000000
1!
1&
b0010101000 +
1.
11
16
b0010101000 7
b0010101000 :
b0010101000 <
b0010101000 ?
#6800000000
0!
0&
0.
01
06
#6820000000
1!
1&
b0010101001 +
1.
11
16
b0010101001 7
b0010101001 :
b0010101001 <
b0010101001 ?
#6840000000
0!
0&
0.
01
06
#6860000000
1!
1&
b0010101010 +
1.
11
16
b0010101010 7
b0010101010 :
b0010101010 <
b0010101010 ?
#6880000000
0!
0&
0.
01
06
#6900000000
1!
1&
b0010101011 +
1.
11
16
b0010101011 7
b0010101011 :
b0010101011 <
b0010101011 ?
#6920000000
0!
0&
0.
01
06
#6940000000
1!
1&
b0010101100 +
1.
11
16
b0010101100 7
b0010101100 :
b0010101100 <
b0010101100 ?
#6960000000
0!
0&
0.
01
06
#6980000000
1!
1&
b0010101101 +
1.
11
16
b0010101101 7
b0010101101 :
b0010101101 <
b0010101101 ?
#7000000000
0!
0&
0.
01
06
#7020000000
1!
1&
b0010101110 +
1.
11
16
b0010101110 7
b0010101110 :
b0010101110 <
b0010101110 ?
#7040000000
0!
0&
0.
01
06
#7060000000
1!
1&
b0010101111 +
1.
11
16
b0010101111 7
b0010101111 :
b0010101111 <
b0010101111 ?
#7080000000
0!
0&
0.
01
06
#7100000000
1!
1&
b0010110000 +
1.
11
16
b0010110000 7
b0010110000 :
b0010110000 <
b0010110000 ?
#7120000000
0!
0&
0.
01
06
#7140000000
1!
1&
b0010110001 +
1.
11
16
b0010110001 7
b0010110001 :
b0010110001 <
b0010110001 ?
